{"href":"https://api.spotify.com/v1/users/1kgn26sc2aixzlx7fd9p34ytw/playlists?offset=0&limit=20","items":[{"collaborative":false,"description":"","external_urls":{"spotify":"https://open.spotify.com/playlist/5EK0BSCEQhMXxrdtd9bJUd"},"href":"https://api.spotify.com/v1/playlists/5EK0BSCEQhMXxrdtd9bJUd","id":"5EK0BSCEQhMXxrdtd9bJUd","images":[{"height":null,"url":"https://image-cdn-ak.spotifycdn.com/image/ab67706c0000bebb35993880ca46674c7e29afcd","width":null}],"name":"Lolita","owner":{"display_name":"Carlo Pezzotti","external_urls":{"spotify":"https://open.spotify.com/user/1kgn26sc2aixzlx7fd9p34ytw"},"href":"https://api.spotify.com/v1/users/1kgn26sc2aixzlx7fd9p34ytw","id":"1kgn26sc2aixzlx7fd9p34ytw","type":"user","uri":"spotify:user:1kgn26sc2aixzlx7fd9p34ytw"},"primary_color":null,"public":false,"snapshot_id":"MTIsMzllNTViZTUwYmY3MDMxNGQ5ZjAxYmNjYmI1OTVkNGMzMmZhOTI1MQ==","tracks":{"href":"https://api.spotify.com/v1/playlists/5EK0BSCEQhMXxrdtd9bJUd/tracks","total":10},"type":"playlist","uri":"spotify:playlist:5EK0BSCEQhMXxrdtd9bJUd"},{"collaborative":false,"description":"","external_urls":{"spotify":"https://open.spotify.com/playlist/1vYcU55hg9ZvMrDrFUAh45"},"href":"https://api.spotify.com/v1/playlists/1vYcU55hg9ZvMrDrFUAh45","id":"1vYcU55hg9ZvMrDrFUAh45","images":[{"height":null,"url":"https://image-cdn-fa.spotifycdn.com/image/ab67706c0000bebb58a207187fa51cf490fdfde9","width":null}],"name":"💪GYM GYM💪","owner":{"display_name":"Carlo Pezzotti","external_urls":{"spotify":"https://open.spotify.com/user/1kgn26sc2aixzlx7fd9p34ytw"},"href":"https://api.spotify.com/v1/users/1kgn26sc2aixzlx7fd9p34ytw","id":"1kgn26sc2aixzlx7fd9p34ytw","type":"user","uri":"spotify:user:1kgn26sc2aixzlx7fd9p34ytw"},"primary_color":null,"public":false,"snapshot_id":"MzMsNjZiZjllM2I5NjJlN2YxMGM2ZmFmMGJhN2RlMTBiYzlmZWJjNTFiMA==","tracks":{"href":"https://api.spotify.com/v1/playlists/1vYcU55hg9ZvMrDrFUAh45/tracks","total":27},"type":"playlist","uri":"spotify:playlist:1vYcU55hg9ZvMrDrFUAh45"},{"collaborative":false,"description":"A Blend of music for Carlo and Davide. Updates daily.","external_urls":{"spotify":"https://open.spotify.com/playlist/37i9dQZF1EJxdUQJH2tN5J"},"href":"https://api.spotify.com/v1/playlists/37i9dQZF1EJxdUQJH2tN5J","id":"37i9dQZF1EJxdUQJH2tN5J","images":[{"height":null,"url":"https://blend-playlist-covers.spotifycdn.com/v2/blend_LARGE-lavender-royal-en.jpg","width":null}],"name":"Davide + Carlo","owner":{"display_name":"Spotify","external_urls":{"spotify":"https://open.spotify.com/user/spotify"},"href":"https://api.spotify.com/v1/users/spotify","id":"spotify","type":"user","uri":"spotify:user:spotify"},"primary_color":null,"public":false,"snapshot_id":"MCwwMDAwMDAwMGJiZmJjYTIwY2Q2MjdmMWVmZjgyZWFmNTM4MTNjMjFm","tracks":{"href":"https://api.spotify.com/v1/playlists/37i9dQZF1EJxdUQJH2tN5J/tracks","total":50},"type":"playlist","uri":"spotify:playlist:37i9dQZF1EJxdUQJH2tN5J"},{"collaborative":false,"description":"<a href=spotify:playlist:37i9dQZF1EIWboPtyrTM1I>Lazza</a>, <a href=spotify:playlist:37i9dQZF1EIW8HgblNP80u>MadMan</a> and <a href=spotify:playlist:37i9dQZF1EIVGP9uqnDIc1>Mostro</a>","external_urls":{"spotify":"https://open.spotify.com/playlist/37i9dQZF1EIUQkR3uGzw8z"},"href":"https://api.spotify.com/v1/playlists/37i9dQZF1EIUQkR3uGzw8z","id":"37i9dQZF1EIUQkR3uGzw8z","images":[{"height":null,"url":"https://seed-mix-image.spotifycdn.com/v6/img/artist/4upwdFMlZBmQ68jP9jPzjK/en/large","width":null}],"name":"Gemitaiz Mix","owner":{"display_name":"Spotify","external_urls":{"spotify":"https://open.spotify.com/user/spotify"},"href":"https://api.spotify.com/v1/users/spotify","id":"spotify","type":"user","uri":"spotify:user:spotify"},"primary_color":null,"public":false,"snapshot_id":"MCwwMDAwMDAwMGViMmI5MDc4NzkwY2JhZDY2NGYxNjgwM2FkODRhM2Jl","tracks":{"href":"https://api.spotify.com/v1/playlists/37i9dQZF1EIUQkR3uGzw8z/tracks","total":50},"type":"playlist","uri":"spotify:playlist:37i9dQZF1EIUQkR3uGzw8z"},{"collaborative":false,"description":"Tutte le novità di <a href=\"https://instagram.com/capitolrecordsit?utm_medium=copy_link\">Capitol Records Italy</a> racchiuse in una playlist!","external_urls":{"spotify":"https://open.spotify.com/playlist/5AbwZ55OnybDthFCUNfGVs"},"href":"https://api.spotify.com/v1/playlists/5AbwZ55OnybDthFCUNfGVs","id":"5AbwZ55OnybDthFCUNfGVs","images":[{"height":null,"url":"https://image-cdn-ak.spotifycdn.com/image/ab67706c0000bebb86ae7e1a7c6422c671bca25a","width":null}],"name":"Capitol Wave","owner":{"display_name":"Digster Italy","external_urls":{"spotify":"https://open.spotify.com/user/digster_italy"},"href":"https://api.spotify.com/v1/users/digster_italy","id":"digster_italy","type":"user","uri":"spotify:user:digster_italy"},"primary_color":null,"public":true,"snapshot_id":"MjQ2MCxjNjc0NzlhN2UwOWRkMDEwOGU3ZTMyZDhjYWQ3NzVhNTk4MjFiM2Vk","tracks":{"href":"https://api.spotify.com/v1/playlists/5AbwZ55OnybDthFCUNfGVs/tracks","total":88},"type":"playlist","uri":"spotify:playlist:5AbwZ55OnybDthFCUNfGVs"},{"collaborative":false,"description":"Expand your mind with these psychedelic rock treasures. Cover: The Doors","external_urls":{"spotify":"https://open.spotify.com/playlist/37i9dQZF1DWSDoVybeQisg"},"href":"https://api.spotify.com/v1/playlists/37i9dQZF1DWSDoVybeQisg","id":"37i9dQZF1DWSDoVybeQisg","images":[{"height":null,"url":"https://i.scdn.co/image/ab67706f00000003efa92a9ff63380968822e59c","width":null}],"name":"Psychedelic Rock","owner":{"display_name":"Spotify","external_urls":{"spotify":"https://open.spotify.com/user/spotify"},"href":"https://api.spotify.com/v1/users/spotify","id":"spotify","type":"user","uri":"spotify:user:spotify"},"primary_color":null,"public":false,"snapshot_id":"MTY4NjkxOTA3MSwwMDAwMDAwMDU3MzA3YTY0NjFiZmYwMzJkMmZjY2M4OTI5ZDhhOTQw","tracks":{"href":"https://api.spotify.com/v1/playlists/37i9dQZF1DWSDoVybeQisg/tracks","total":75},"type":"playlist","uri":"spotify:playlist:37i9dQZF1DWSDoVybeQisg"},{"collaborative":false,"description":"","external_urls":{"spotify":"https://open.spotify.com/playlist/5XH01xfiICZDATjSp6z5hK"},"href":"https://api.spotify.com/v1/playlists/5XH01xfiICZDATjSp6z5hK","id":"5XH01xfiICZDATjSp6z5hK","images":[],"name":"La mia playlist n. 14","owner":{"display_name":"Carlo Pezzotti","external_urls":{"spotify":"https://open.spotify.com/user/1kgn26sc2aixzlx7fd9p34ytw"},"href":"https://api.spotify.com/v1/users/1kgn26sc2aixzlx7fd9p34ytw","id":"1kgn26sc2aixzlx7fd9p34ytw","type":"user","uri":"spotify:user:1kgn26sc2aixzlx7fd9p34ytw"},"primary_color":null,"public":false,"snapshot_id":"MSxmM2MzYmViNjQxYzAxZjEzZmNmMGMxZTNmMjU1ZGViYzhiOTMzMGRh","tracks":{"href":"https://api.spotify.com/v1/playlists/5XH01xfiICZDATjSp6z5hK/tracks","total":0},"type":"playlist","uri":"spotify:playlist:5XH01xfiICZDATjSp6z5hK"},{"collaborative":false,"description":"","external_urls":{"spotify":"https://open.spotify.com/playlist/0s8tfHVdQa8duFMev3ZlgD"},"href":"https://api.spotify.com/v1/playlists/0s8tfHVdQa8duFMev3ZlgD","id":"0s8tfHVdQa8duFMev3ZlgD","images":[{"height":null,"url":"https://image-cdn-ak.spotifycdn.com/image/ab67706c0000bebb582d2c27ce2375e729081338","width":null}],"name":"Dub Reggae","owner":{"display_name":"constantinex","external_urls":{"spotify":"https://open.spotify.com/user/constantinex"},"href":"https://api.spotify.com/v1/users/constantinex","id":"constantinex","type":"user","uri":"spotify:user:constantinex"},"primary_color":null,"public":false,"snapshot_id":"MjgzLGRkYmJkZjcxYjM4ZWFkMzU0ZThiNmI5MmM4NmY5MTNkODRlYmZiM2M=","tracks":{"href":"https://api.spotify.com/v1/playlists/0s8tfHVdQa8duFMev3ZlgD/tracks","total":151},"type":"playlist","uri":"spotify:playlist:0s8tfHVdQa8duFMev3ZlgD"},{"collaborative":false,"description":"","external_urls":{"spotify":"https://open.spotify.com/playlist/7sznyep2KfpJof274oFFHF"},"href":"https://api.spotify.com/v1/playlists/7sznyep2KfpJof274oFFHF","id":"7sznyep2KfpJof274oFFHF","images":[],"name":"Goa","owner":{"display_name":"Carlo Pezzotti","external_urls":{"spotify":"https://open.spotify.com/user/1kgn26sc2aixzlx7fd9p34ytw"},"href":"https://api.spotify.com/v1/users/1kgn26sc2aixzlx7fd9p34ytw","id":"1kgn26sc2aixzlx7fd9p34ytw","type":"user","uri":"spotify:user:1kgn26sc2aixzlx7fd9p34ytw"},"primary_color":null,"public":true,"snapshot_id":"MSxkNTFkMGZjYjRmMzY4ZjcyOWI0NTc0ZmEwMDgzMTFhOWE3NWMyOTcw","tracks":{"href":"https://api.spotify.com/v1/playlists/7sznyep2KfpJof274oFFHF/tracks","total":0},"type":"playlist","uri":"spotify:playlist:7sznyep2KfpJof274oFFHF"},{"collaborative":false,"description":"","external_urls":{"spotify":"https://open.spotify.com/playlist/0L0VRUKtvpqCfzUNnZP1ns"},"href":"https://api.spotify.com/v1/playlists/0L0VRUKtvpqCfzUNnZP1ns","id":"0L0VRUKtvpqCfzUNnZP1ns","images":[{"height":640,"url":"https://mosaic.scdn.co/640/ab67616d0000b2737a3ec828691870734dd9358dab67616d0000b273c34e3f972965731cabe219eaab67616d0000b273df128754deb5852f5028f1ceab67616d0000b273fb7ff3c73e1369b0f5390988","width":640},{"height":300,"url":"https://mosaic.scdn.co/300/ab67616d0000b2737a3ec828691870734dd9358dab67616d0000b273c34e3f972965731cabe219eaab67616d0000b273df128754deb5852f5028f1ceab67616d0000b273fb7ff3c73e1369b0f5390988","width":300},{"height":60,"url":"https://mosaic.scdn.co/60/ab67616d0000b2737a3ec828691870734dd9358dab67616d0000b273c34e3f972965731cabe219eaab67616d0000b273df128754deb5852f5028f1ceab67616d0000b273fb7ff3c73e1369b0f5390988","width":60}],"name":"Indiello","owner":{"display_name":"Carlo Pezzotti","external_urls":{"spotify":"https://open.spotify.com/user/1kgn26sc2aixzlx7fd9p34ytw"},"href":"https://api.spotify.com/v1/users/1kgn26sc2aixzlx7fd9p34ytw","id":"1kgn26sc2aixzlx7fd9p34ytw","type":"user","uri":"spotify:user:1kgn26sc2aixzlx7fd9p34ytw"},"primary_color":null,"public":true,"snapshot_id":"NjAsNGM1YWM2YmNlYzI2NzliNmM0YzNlZDVhNjg4YjZiN2YzNDY3ODc5ZA==","tracks":{"href":"https://api.spotify.com/v1/playlists/0L0VRUKtvpqCfzUNnZP1ns/tracks","total":80},"type":"playlist","uri":"spotify:playlist:0L0VRUKtvpqCfzUNnZP1ns"},{"collaborative":false,"description":"","external_urls":{"spotify":"https://open.spotify.com/playlist/67mQBhWy36CsMATMhnv2q2"},"href":"https://api.spotify.com/v1/playlists/67mQBhWy36CsMATMhnv2q2","id":"67mQBhWy36CsMATMhnv2q2","images":[{"height":640,"url":"https://i.scdn.co/image/ab67616d0000b273f45c50e7cff5f2376c1e36ea","width":640}],"name":"Cazzeggio","owner":{"display_name":"Carlo Pezzotti","external_urls":{"spotify":"https://open.spotify.com/user/1kgn26sc2aixzlx7fd9p34ytw"},"href":"https://api.spotify.com/v1/users/1kgn26sc2aixzlx7fd9p34ytw","id":"1kgn26sc2aixzlx7fd9p34ytw","type":"user","uri":"spotify:user:1kgn26sc2aixzlx7fd9p34ytw"},"primary_color":null,"public":true,"snapshot_id":"MyxjZTQ1YzcyYzU1MTllMDVmYjY2MzlhM2RlZDdhZGJmOGM3NTE4Zjcy","tracks":{"href":"https://api.spotify.com/v1/playlists/67mQBhWy36CsMATMhnv2q2/tracks","total":2},"type":"playlist","uri":"spotify:playlist:67mQBhWy36CsMATMhnv2q2"},{"collaborative":false,"description":"","external_urls":{"spotify":"https://open.spotify.com/playlist/1sTE9ZNARoLfgiuXEMpae3"},"href":"https://api.spotify.com/v1/playlists/1sTE9ZNARoLfgiuXEMpae3","id":"1sTE9ZNARoLfgiuXEMpae3","images":[{"height":640,"url":"https://mosaic.scdn.co/640/ab67616d0000b27302f000192443e8e3def65c88ab67616d0000b27320f3de1822791b066e563a2dab67616d0000b2739a88a61e9fb51cce727b0f52ab67616d0000b273c6ab6ad6c392e4f8d1b5220b","width":640},{"height":300,"url":"https://mosaic.scdn.co/300/ab67616d0000b27302f000192443e8e3def65c88ab67616d0000b27320f3de1822791b066e563a2dab67616d0000b2739a88a61e9fb51cce727b0f52ab67616d0000b273c6ab6ad6c392e4f8d1b5220b","width":300},{"height":60,"url":"https://mosaic.scdn.co/60/ab67616d0000b27302f000192443e8e3def65c88ab67616d0000b27320f3de1822791b066e563a2dab67616d0000b2739a88a61e9fb51cce727b0f52ab67616d0000b273c6ab6ad6c392e4f8d1b5220b","width":60}],"name":"Passatello","owner":{"display_name":"Carlo Pezzotti","external_urls":{"spotify":"https://open.spotify.com/user/1kgn26sc2aixzlx7fd9p34ytw"},"href":"https://api.spotify.com/v1/users/1kgn26sc2aixzlx7fd9p34ytw","id":"1kgn26sc2aixzlx7fd9p34ytw","type":"user","uri":"spotify:user:1kgn26sc2aixzlx7fd9p34ytw"},"primary_color":null,"public":true,"snapshot_id":"MTgsNDc1ODNjMTc0OTg2MWFmM2U1MTg2NDQxODIwNzMxNjNhMTgwYTQwZA==","tracks":{"href":"https://api.spotify.com/v1/playlists/1sTE9ZNARoLfgiuXEMpae3/tracks","total":16},"type":"playlist","uri":"spotify:playlist:1sTE9ZNARoLfgiuXEMpae3"},{"collaborative":false,"description":"","external_urls":{"spotify":"https://open.spotify.com/playlist/0wk3qtW5FoM5Zf2XHHklzm"},"href":"https://api.spotify.com/v1/playlists/0wk3qtW5FoM5Zf2XHHklzm","id":"0wk3qtW5FoM5Zf2XHHklzm","images":[{"height":640,"url":"https://mosaic.scdn.co/640/ab67616d0000b27331f299af396e8346f6924b91ab67616d0000b273441531eff983be59237af20aab67616d0000b27352038992fc6d7868f31d23b7ab67616d0000b273c77f2e983126ffc3a86d1fad","width":640},{"height":300,"url":"https://mosaic.scdn.co/300/ab67616d0000b27331f299af396e8346f6924b91ab67616d0000b273441531eff983be59237af20aab67616d0000b27352038992fc6d7868f31d23b7ab67616d0000b273c77f2e983126ffc3a86d1fad","width":300},{"height":60,"url":"https://mosaic.scdn.co/60/ab67616d0000b27331f299af396e8346f6924b91ab67616d0000b273441531eff983be59237af20aab67616d0000b27352038992fc6d7868f31d23b7ab67616d0000b273c77f2e983126ffc3a86d1fad","width":60}],"name":"Sveglie","owner":{"display_name":"Carlo Pezzotti","external_urls":{"spotify":"https://open.spotify.com/user/1kgn26sc2aixzlx7fd9p34ytw"},"href":"https://api.spotify.com/v1/users/1kgn26sc2aixzlx7fd9p34ytw","id":"1kgn26sc2aixzlx7fd9p34ytw","type":"user","uri":"spotify:user:1kgn26sc2aixzlx7fd9p34ytw"},"primary_color":null,"public":true,"snapshot_id":"NyxlMTVkOTE5YTEwNzAwNzBkYTc2MGZmNTkwNzJlYTIzNGFkZjMyMTM1","tracks":{"href":"https://api.spotify.com/v1/playlists/0wk3qtW5FoM5Zf2XHHklzm/tracks","total":6},"type":"playlist","uri":"spotify:playlist:0wk3qtW5FoM5Zf2XHHklzm"},{"collaborative":false,"description":"","external_urls":{"spotify":"https://open.spotify.com/playlist/7MNQzA3kmYUauZX9gfBCWA"},"href":"https://api.spotify.com/v1/playlists/7MNQzA3kmYUauZX9gfBCWA","id":"7MNQzA3kmYUauZX9gfBCWA","images":[{"height":640,"url":"https://i.scdn.co/image/ab67616d0000b273e134c95eb7ece9d52a547a34","width":640}],"name":"DNB","owner":{"display_name":"Carlo Pezzotti","external_urls":{"spotify":"https://open.spotify.com/user/1kgn26sc2aixzlx7fd9p34ytw"},"href":"https://api.spotify.com/v1/users/1kgn26sc2aixzlx7fd9p34ytw","id":"1kgn26sc2aixzlx7fd9p34ytw","type":"user","uri":"spotify:user:1kgn26sc2aixzlx7fd9p34ytw"},"primary_color":null,"public":true,"snapshot_id":"NCw1NjEyZWI5ZTUwYTI5MzA0NmU5MDIwNzRjZTY4MDg4MmIzMDM3N2Yx","tracks":{"href":"https://api.spotify.com/v1/playlists/7MNQzA3kmYUauZX9gfBCWA/tracks","total":3},"type":"playlist","uri":"spotify:playlist:7MNQzA3kmYUauZX9gfBCWA"},{"collaborative":false,"description":"","external_urls":{"spotify":"https://open.spotify.com/playlist/0HUM6NsFqf7fdKbbYlYBjp"},"href":"https://api.spotify.com/v1/playlists/0HUM6NsFqf7fdKbbYlYBjp","id":"0HUM6NsFqf7fdKbbYlYBjp","images":[{"height":640,"url":"https://mosaic.scdn.co/640/ab67616d0000b2730dda9c11454b9053d07f585aab67616d0000b2736686bf5b2e62ef26ec0d0ea4ab67616d0000b2738399047ff71200928f5b6508ab67616d0000b273bad7062c3fd2f2d037989694","width":640},{"height":300,"url":"https://mosaic.scdn.co/300/ab67616d0000b2730dda9c11454b9053d07f585aab67616d0000b2736686bf5b2e62ef26ec0d0ea4ab67616d0000b2738399047ff71200928f5b6508ab67616d0000b273bad7062c3fd2f2d037989694","width":300},{"height":60,"url":"https://mosaic.scdn.co/60/ab67616d0000b2730dda9c11454b9053d07f585aab67616d0000b2736686bf5b2e62ef26ec0d0ea4ab67616d0000b2738399047ff71200928f5b6508ab67616d0000b273bad7062c3fd2f2d037989694","width":60}],"name":"Rockello","owner":{"display_name":"Carlo Pezzotti","external_urls":{"spotify":"https://open.spotify.com/user/1kgn26sc2aixzlx7fd9p34ytw"},"href":"https://api.spotify.com/v1/users/1kgn26sc2aixzlx7fd9p34ytw","id":"1kgn26sc2aixzlx7fd9p34ytw","type":"user","uri":"spotify:user:1kgn26sc2aixzlx7fd9p34ytw"},"primary_color":null,"public":true,"snapshot_id":"NDAsMGZhZmM1ODgxNjEzMjc3NDA1YmRiMGU2ODNmZGFlZjRiMmQ1ZGRjYw==","tracks":{"href":"https://api.spotify.com/v1/playlists/0HUM6NsFqf7fdKbbYlYBjp/tracks","total":36},"type":"playlist","uri":"spotify:playlist:0HUM6NsFqf7fdKbbYlYBjp"},{"collaborative":false,"description":"","external_urls":{"spotify":"https://open.spotify.com/playlist/5ESooxgsEPqhiQ1u9s3bZW"},"href":"https://api.spotify.com/v1/playlists/5ESooxgsEPqhiQ1u9s3bZW","id":"5ESooxgsEPqhiQ1u9s3bZW","images":[{"height":640,"url":"https://mosaic.scdn.co/640/ab67616d0000b273488f7916bcb14082e1acb101ab67616d0000b27360282020360f5048976275aaab67616d0000b2739616d31f09288f49eb7dfac5ab67616d0000b273c6e0948bbb0681ff29cdbae8","width":640},{"height":300,"url":"https://mosaic.scdn.co/300/ab67616d0000b273488f7916bcb14082e1acb101ab67616d0000b27360282020360f5048976275aaab67616d0000b2739616d31f09288f49eb7dfac5ab67616d0000b273c6e0948bbb0681ff29cdbae8","width":300},{"height":60,"url":"https://mosaic.scdn.co/60/ab67616d0000b273488f7916bcb14082e1acb101ab67616d0000b27360282020360f5048976275aaab67616d0000b2739616d31f09288f49eb7dfac5ab67616d0000b273c6e0948bbb0681ff29cdbae8","width":60}],"name":"(T)rappello","owner":{"display_name":"Carlo Pezzotti","external_urls":{"spotify":"https://open.spotify.com/user/1kgn26sc2aixzlx7fd9p34ytw"},"href":"https://api.spotify.com/v1/users/1kgn26sc2aixzlx7fd9p34ytw","id":"1kgn26sc2aixzlx7fd9p34ytw","type":"user","uri":"spotify:user:1kgn26sc2aixzlx7fd9p34ytw"},"primary_color":null,"public":true,"snapshot_id":"NzgsODBlMzAwNTUzZGIwNzc5Y2NiNTM2NDkwZjc3Njc4ZWY5ZTRkZDUyZA==","tracks":{"href":"https://api.spotify.com/v1/playlists/5ESooxgsEPqhiQ1u9s3bZW/tracks","total":231},"type":"playlist","uri":"spotify:playlist:5ESooxgsEPqhiQ1u9s3bZW"},{"collaborative":false,"description":"","external_urls":{"spotify":"https://open.spotify.com/playlist/0wQws1oo33zHDVHrrZBYbr"},"href":"https://api.spotify.com/v1/playlists/0wQws1oo33zHDVHrrZBYbr","id":"0wQws1oo33zHDVHrrZBYbr","images":[{"height":640,"url":"https://mosaic.scdn.co/640/ab67616d0000b2732a7922dc3a775970e2eb96dcab67616d0000b2733f66b5b49ccea004a5ef0db2ab67616d0000b27394bcf01575f6e950da823534ab67616d0000b273a96785c52a78437c35703303","width":640},{"height":300,"url":"https://mosaic.scdn.co/300/ab67616d0000b2732a7922dc3a775970e2eb96dcab67616d0000b2733f66b5b49ccea004a5ef0db2ab67616d0000b27394bcf01575f6e950da823534ab67616d0000b273a96785c52a78437c35703303","width":300},{"height":60,"url":"https://mosaic.scdn.co/60/ab67616d0000b2732a7922dc3a775970e2eb96dcab67616d0000b2733f66b5b49ccea004a5ef0db2ab67616d0000b27394bcf01575f6e950da823534ab67616d0000b273a96785c52a78437c35703303","width":60}],"name":"Ci togliamo la vita?","owner":{"display_name":"Carlo Pezzotti","external_urls":{"spotify":"https://open.spotify.com/user/1kgn26sc2aixzlx7fd9p34ytw"},"href":"https://api.spotify.com/v1/users/1kgn26sc2aixzlx7fd9p34ytw","id":"1kgn26sc2aixzlx7fd9p34ytw","type":"user","uri":"spotify:user:1kgn26sc2aixzlx7fd9p34ytw"},"primary_color":null,"public":true,"snapshot_id":"NTgsMDYyODE4NjNjYzc1M2VjYzg5NGZhYmM4ODI4NDQ1YWViYTQyZmE3NQ==","tracks":{"href":"https://api.spotify.com/v1/playlists/0wQws1oo33zHDVHrrZBYbr/tracks","total":30},"type":"playlist","uri":"spotify:playlist:0wQws1oo33zHDVHrrZBYbr"},{"collaborative":false,"description":"","external_urls":{"spotify":"https://open.spotify.com/playlist/05AQ7BFkv73t3ITRZyKnP8"},"href":"https://api.spotify.com/v1/playlists/05AQ7BFkv73t3ITRZyKnP8","id":"05AQ7BFkv73t3ITRZyKnP8","images":[{"height":640,"url":"https://i.scdn.co/image/ab67616d0000b2738e4bc7df44796d315fbf8031","width":640}],"name":"Tekk","owner":{"display_name":"Carlo Pezzotti","external_urls":{"spotify":"https://open.spotify.com/user/1kgn26sc2aixzlx7fd9p34ytw"},"href":"https://api.spotify.com/v1/users/1kgn26sc2aixzlx7fd9p34ytw","id":"1kgn26sc2aixzlx7fd9p34ytw","type":"user","uri":"spotify:user:1kgn26sc2aixzlx7fd9p34ytw"},"primary_color":null,"public":true,"snapshot_id":"OCw2MTgxNWIzYmM3ZTU1NGRhYmYyOWI1YjlmYjAxZTg2NjgzMjVkZTQ3","tracks":{"href":"https://api.spotify.com/v1/playlists/05AQ7BFkv73t3ITRZyKnP8/tracks","total":3},"type":"playlist","uri":"spotify:playlist:05AQ7BFkv73t3ITRZyKnP8"},{"collaborative":false,"description":"","external_urls":{"spotify":"https://open.spotify.com/playlist/7tqfaVEjfz9nSCubeZDWIS"},"href":"https://api.spotify.com/v1/playlists/7tqfaVEjfz9nSCubeZDWIS","id":"7tqfaVEjfz9nSCubeZDWIS","images":[{"height":640,"url":"https://mosaic.scdn.co/640/49d7730287c82f765809797b96957d585e4d7442ab67616d0000b273c1908dc6a73a2e9729184a64ab67616d0000b273cce1d216cf5d96a7fd6fdf37fcfe6087e2f67937a0c2e5471e6e95c55fbe77ef","width":640},{"height":300,"url":"https://mosaic.scdn.co/300/49d7730287c82f765809797b96957d585e4d7442ab67616d0000b273c1908dc6a73a2e9729184a64ab67616d0000b273cce1d216cf5d96a7fd6fdf37fcfe6087e2f67937a0c2e5471e6e95c55fbe77ef","width":300},{"height":60,"url":"https://mosaic.scdn.co/60/49d7730287c82f765809797b96957d585e4d7442ab67616d0000b273c1908dc6a73a2e9729184a64ab67616d0000b273cce1d216cf5d96a7fd6fdf37fcfe6087e2f67937a0c2e5471e6e95c55fbe77ef","width":60}],"name":"Technello","owner":{"display_name":"Carlo Pezzotti","external_urls":{"spotify":"https://open.spotify.com/user/1kgn26sc2aixzlx7fd9p34ytw"},"href":"https://api.spotify.com/v1/users/1kgn26sc2aixzlx7fd9p34ytw","id":"1kgn26sc2aixzlx7fd9p34ytw","type":"user","uri":"spotify:user:1kgn26sc2aixzlx7fd9p34ytw"},"primary_color":null,"public":true,"snapshot_id":"OTcsODAyNjY5YTExNGQyYjE1OTYzYmRkYmE4ZWI1N2JhNjQxZTNlN2NhOQ==","tracks":{"href":"https://api.spotify.com/v1/playlists/7tqfaVEjfz9nSCubeZDWIS/tracks","total":55},"type":"playlist","uri":"spotify:playlist:7tqfaVEjfz9nSCubeZDWIS"},{"collaborative":false,"description":"","external_urls":{"spotify":"https://open.spotify.com/playlist/1IUzSjBtGyKfEyMXGTjqXw"},"href":"https://api.spotify.com/v1/playlists/1IUzSjBtGyKfEyMXGTjqXw","id":"1IUzSjBtGyKfEyMXGTjqXw","images":[{"height":640,"url":"https://mosaic.scdn.co/640/49aa94c7074d26e043466095ee9b3c76a8a73bd3ab67616d0000b2733c7b9de1430d2579612af854ab67616d0000b2735a3b00372568c67cba4aa1aaab67616d0000b2736fc80ed6751f3dfdbd203325","width":640},{"height":300,"url":"https://mosaic.scdn.co/300/49aa94c7074d26e043466095ee9b3c76a8a73bd3ab67616d0000b2733c7b9de1430d2579612af854ab67616d0000b2735a3b00372568c67cba4aa1aaab67616d0000b2736fc80ed6751f3dfdbd203325","width":300},{"height":60,"url":"https://mosaic.scdn.co/60/49aa94c7074d26e043466095ee9b3c76a8a73bd3ab67616d0000b2733c7b9de1430d2579612af854ab67616d0000b2735a3b00372568c67cba4aa1aaab67616d0000b2736fc80ed6751f3dfdbd203325","width":60}],"name":"Reggello","owner":{"display_name":"Carlo Pezzotti","external_urls":{"spotify":"https://open.spotify.com/user/1kgn26sc2aixzlx7fd9p34ytw"},"href":"https://api.spotify.com/v1/users/1kgn26sc2aixzlx7fd9p34ytw","id":"1kgn26sc2aixzlx7fd9p34ytw","type":"user","uri":"spotify:user:1kgn26sc2aixzlx7fd9p34ytw"},"primary_color":null,"public":true,"snapshot_id":"MTczLDI3MGQyN2EwYTM2MmU0YjNiNTc5YTI1YTY4NzM0ZDgyMzg2Y2M3Mzg=","tracks":{"href":"https://api.spotify.com/v1/playlists/1IUzSjBtGyKfEyMXGTjqXw/tracks","total":88},"type":"playlist","uri":"spotify:playlist:1IUzSjBtGyKfEyMXGTjqXw"}],"limit":20,"next":"https://api.spotify.com/v1/users/1kgn26sc2aixzlx7fd9p34ytw/playlists?offset=20&limit=20","offset":0,"previous":null,"total":21}